module codeberg.org/BubbyRoosh/bff

go 1.17

require (
	github.com/charmbracelet/bubbles v0.9.0
	github.com/charmbracelet/bubbletea v0.19.2
	github.com/charmbracelet/lipgloss v0.3.0
	golang.org/x/term v0.0.0-20210422114643-f5beecf764ed
	gopkg.in/yaml.v2 v2.4.0
)

require (
	github.com/atotto/clipboard v0.1.2 // indirect
	github.com/containerd/console v1.0.2 // indirect
	github.com/lucasb-eyer/go-colorful v1.2.0 // indirect
	github.com/mattn/go-isatty v0.0.13 // indirect
	github.com/mattn/go-runewidth v0.0.13 // indirect
	github.com/muesli/ansi v0.0.0-20211018074035-2e021307bc4b // indirect
	github.com/muesli/reflow v0.3.0 // indirect
	github.com/muesli/termenv v0.9.0 // indirect
	github.com/pkg/errors v0.9.1 // indirect
	github.com/rivo/uniseg v0.2.0 // indirect
	github.com/sahilm/fuzzy v0.1.0 // indirect
	golang.org/x/sys v0.0.0-20210124154548-22da62e12c0c // indirect
)
